CYCLE cycle=1 cycle_wo_finds=0 time_wo_finds=0 expand_havoc=0 queue=74
QUEUE out-cmplog//default/queue/id:000009,time:0,execs:0,orig:empty-allow-ipv6.xml HAVOC-0-4 ARITH32-_9 BYTESUB_ ARITH8-_25 ARITH32-_32 = out-cmplog//default/queue/id:000074,src:000009+000073,time:25033,execs:3302,op:splice,rep:4
QUEUE out-cmplog//default/queue/id:000009,time:0,execs:0,orig:empty-allow-ipv6.xml HAVOC-0-15 EXTRA-OVERWRITE_64_13 SPLICE-INSERT_115_36_16_out-cmplog//default/queue/id:000017,time:0,execs:0,orig:isolated-ports.xml INTERESTING32BE_21 EXTRA-OVERWRITE_96_5 ARITH32BE-_4 ARITH32-_12 ARITH8-_35 DEL_16_6 OVERWRITE-COPY_40_13_21 SPLICE-OVERWRITE_534_27_29_out-cmplog//default/queue/id:000067,time:0,execs:0,orig:ptr-domains-auto.xml INTERESTING8_2 OVERWRITE-COPY_39_31_9 ARITH32+_4 SPLICE-INSERT_694_55_22_out-cmplog//default/queue/id:000033,time:0,execs:0,orig:nat-network-dns-srv-record-minimal.xml INTERESTING32BE_23 = out-cmplog//default/queue/id:000075,src:000009,time:117155,execs:12766,op:havoc,rep:15
QUEUE out-cmplog//default/queue/id:000009,time:0,execs:0,orig:empty-allow-ipv6.xml HAVOC-0-2 ARITH16-_9 DEL_20_16 = out-cmplog//default/queue/id:000076,src:000009,time:124404,execs:13519,op:havoc,rep:2,+cov
QUEUE out-cmplog//default/queue/id:000009,time:0,execs:0,orig:empty-allow-ipv6.xml HAVOC-0-4 SPLICE-INSERT_92_17_21_out-cmplog//default/queue/id:000015,time:0,execs:0,orig:hostdev.xml INTERESTING32_18 SPLICE-INSERT_124_225_13_out-cmplog//default/queue/id:000053,time:0,execs:0,orig:nat-no-dhcp.xml OVERWRITE-COPY_198_293_13 = out-cmplog//default/queue/id:000077,src:000009+000024,time:146879,execs:15814,op:splice,rep:4
CYCLE cycle=2 cycle_wo_finds=0 time_wo_finds=92 expand_havoc=0 queue=78
QUEUE out-cmplog//default/queue/id:000009,time:0,execs:0,orig:empty-allow-ipv6.xml HAVOC-0-2 ARITH8+_30 ARITH16BE-_27 = out-cmplog//default/queue/id:000078,src:000009,time:321448,execs:33667,op:havoc,rep:2
CYCLE cycle=3 cycle_wo_finds=0 time_wo_finds=174 expand_havoc=0 queue=79
CYCLE cycle=4 cycle_wo_finds=1 time_wo_finds=204 expand_havoc=1 queue=79
QUEUE out-cmplog//default/queue/id:000009,time:0,execs:0,orig:empty-allow-ipv6.xml HAVOC-0-1 BYTEADD_ = out-cmplog//default/queue/id:000079,src:000009+000027,time:582857,execs:65610,op:splice,rep:1
QUEUE out-cmplog//default/queue/id:000076,src:000009,time:124404,execs:13519,op:havoc,rep:2,+cov HAVOC-0-13 CLONE-FIXED_1_622_91 ARITH16+_28 SPLICE-OVERWRITE_40_184_690_out-cmplog//default/queue/id:000063,time:0,execs:0,orig:openvswitch-net.xml ARITH8+_12 ARITH8-_6 DEL_351_114 INTERESTING32_17 SPLICE-OVERWRITE_388_949_66_out-cmplog//default/queue/id:000074,src:000009+000073,time:25033,execs:3302,op:splice,rep:4 CLONE-FIXED_1_498_29659 INTERESTING8_4 SPLICE-INSERT_73_6509_489_out-cmplog//default/queue/id:000021,time:0,execs:0,orig:leasetime-seconds.xml ARITH32BE-_29 INTERESTING16BE_1 = out-cmplog//default/queue/id:000080,src:000076+000002,time:602902,execs:68290,op:splice,rep:13,+cov
QUEUE out-cmplog//default/queue/id:000080,src:000076+000002,time:602902,execs:68290,op:splice,rep:13,+cov HAVOC-0-7 OVERWRITE-COPY_4381_9078_7 OVERWRITE-FIXED_0_117_8521-86 DEL_1070_1227 INTERESTING8_0 ARITH8-_17 INTERESTING16_8 RAND8_212 = out-cmplog//default/queue/id:000081,src:000080,time:616536,execs:70125,op:havoc,rep:7
QUEUE out-cmplog//default/queue/id:000080,src:000076+000002,time:602902,execs:68290,op:splice,rep:13,+cov HAVOC-0-5 CLONE-COPY_8935_14766_1481 EXTRA-OVERWRITE_13076_3 CLONE-COPY_8185_16467_14071 SPLICE-OVERWRITE_14_22610_146_out-cmplog//default/queue/id:000066,time:0,execs:0,orig:passthrough-pf.xml ARITH16BE+__31 = out-cmplog//default/queue/id:000082,src:000080,time:616703,execs:70147,op:havoc,rep:5
QUEUE out-cmplog//default/queue/id:000080,src:000076+000002,time:602902,execs:68290,op:splice,rep:13,+cov HAVOC-0-2 DEL_390_11915 OVERWRITE-COPY_11608_4799_343 = out-cmplog//default/queue/id:000083,src:000080,time:616918,execs:70175,op:havoc,rep:2
QUEUE out-cmplog//default/queue/id:000082,src:000080,time:616703,execs:70147,op:havoc,rep:5 HAVOC-0-13 SPLICE-INSERT_128_2406_17_out-cmplog//default/queue/id:000064,time:0,execs:0,orig:passthrough-address-crash.xml FLIP-BIT_3 RAND8_23 EXTRA-INSERT_16603_2 ARITH16+_31 BYTEADD_ EXTRA-INSERT_34419_6 ARITH16+_20 ARITH8-_22 CLONE-COPY_9878_2075_21105 CLONE-COPY_55275_28567_10 SPLICE-INSERT_518_43707_12_out-cmplog//default/queue/id:000048,time:0,execs:0,orig:nat-network-no-forward-ifaces.xml INTERESTING16BE_4 = out-cmplog//default/queue/id:000084,src:000082,time:652855,execs:75002,op:havoc,rep:13
CYCLE cycle=5 cycle_wo_finds=0 time_wo_finds=261 expand_havoc=1 queue=85
QUEUE out-cmplog//default/queue/id:000083,src:000080,time:616918,execs:70175,op:havoc,rep:2 HAVOC-0-5 ARITH16+_24 ARITH16BE+__33 CLONE-FIXED_0_18_32149 INTERESTING16_1 ARITH32-_29 = out-cmplog//default/queue/id:000085,src:000083+000009,time:798833,execs:94529,op:splice,rep:5,+cov
QUEUE out-cmplog//default/queue/id:000009,time:0,execs:0,orig:empty-allow-ipv6.xml HAVOC-0-2 FLIP8_ SPLICE-INSERT_1_15508_70_out-cmplog//default/queue/id:000075,src:000009,time:117155,execs:12766,op:havoc,rep:15 = out-cmplog//default/queue/id:000086,src:000009+000085,time:841821,execs:100301,op:splice,rep:2
QUEUE out-cmplog//default/queue/id:000086,src:000009+000085,time:841821,execs:100301,op:splice,rep:2 HAVOC-0-2 CLONE-FIXED_1_132_575 INTERESTING16BE_3 = out-cmplog//default/queue/id:000087,src:000086+000057,time:915798,execs:109747,op:splice,rep:2
CYCLE cycle=6 cycle_wo_finds=0 time_wo_finds=261 expand_havoc=1 queue=88
CYCLE cycle=7 cycle_wo_finds=1 time_wo_finds=261 expand_havoc=2 queue=88
QUEUE out-cmplog//default/queue/id:000009,time:0,execs:0,orig:empty-allow-ipv6.xml HAVOC-0-1 ARITH32-_33 = out-cmplog//default/queue/id:000088,src:000086,time:1296057,execs:160231,op:colorization,rep:1
CYCLE cycle=8 cycle_wo_finds=0 time_wo_finds=380 expand_havoc=2 queue=89
CYCLE cycle=9 cycle_wo_finds=1 time_wo_finds=409 expand_havoc=3 queue=89
QUEUE out-cmplog//default/queue/id:000081,src:000080,time:616536,execs:70125,op:havoc,rep:7 HAVOC-0-1 CLONE-COPY_751_749_21 = out-cmplog//default/queue/id:000089,src:000081+000037,time:1748502,execs:220749,op:splice,rep:1
CYCLE cycle=10 cycle_wo_finds=0 time_wo_finds=452 expand_havoc=3 queue=90
CYCLE cycle=11 cycle_wo_finds=1 time_wo_finds=452 expand_havoc=4 queue=90
CYCLE cycle=12 cycle_wo_finds=2 time_wo_finds=452 expand_havoc=5 queue=90
